[{
	"dashFaqs": [{
		"title": "FAQCNTTdashTitleText1JSON",
		"question": "FAQCNTTdashQuestionText1JSON",
		"linkContactAnswer1": "FAQCNTTdashLinkText1JSON",
		"answer": "FAQCNTTdashAnswerText1JSON"
	}, {
		"title": "FAQCNTTdashTitleText2JSON",
		"question": "FAQCNTTdashQuestionText2JSON",
		"answerExtra": "FAQCNTTdashAnswerExtraText2JSON",
		"linkContactAnswer2": "FAQCNTTdashLinkText2JSON",
		"answer": "FAQCNTTdashAnswerText2JSON"
	}, {
		"title": "FAQCNTTdashTitleText3JSON",
		"question": "FAQCNTTdashQuestionText3JSON",
		"answerExtra": "FAQCNTTdashAnswerExtraText3JSON",
		"linkContactAnswer3": "FAQCNTTdashLinkText3JSON",
		"answer": "FAQCNTTdashAnswerText3JSON"
	}, {
		"title": "FAQCNTTdashTitleText4JSON",
		"question": "FAQCNTTdashQuestionText4JSON",
		"answerExtra": "FAQCNTTdashAnswerExtraText4JSON",
		"linkContactAnswer4": "FAQCNTTdashLinkText4JSON"
	}, {
		"title": "FAQCNTTdashTitleText5JSON",
		"question": "FAQCNTTdashQuestionText5JSON",
		"answer": "FAQCNTTdashAnswerText5JSON",
		"linkContactAnswer5": "FAQCNTTdashLinkText5JSON",
		"answerExtra1": "FAQCNTTdashAnswerExtraText5JSON"
	}]
}, {
	"contact": [{
		"title": "FAQCNTTcontactTitleText1JSON",
		"question": "FAQCNTTcontactQuestionText1JSON",
		"answer": "FAQCNTTcontactAnswerText1JSON"
	}]
}, {
	"product": [{
		"title": "FAQCNTTproductTitleText1JSON",
		"question": "FAQCNTTproductQuestionText1JSON",
		"answer": "FAQCNTTproductAnswerText1JSON"
	}, {
		"title": "FAQCNTTproductTitleText2JSON",
		"question": "FAQCNTTproductQuestionText2JSON",
		"answer": "FAQCNTTproductAnswerText2JSON"
	}, {
		"title": "FAQCNTTproductTitleText3JSON",
		"question": "FAQCNTTproductQuestionText3JSON",
		"answer": "FAQCNTTproductAnswerText3JSON"
	}, {
		"title": "FAQCNTTproductTitleText4JSON",
		"question": "FAQCNTTproductQuestionText4JSON",
		"answer": "FAQCNTTproductAnswerText4JSON"
	}, {
		"title": "FAQCNTTproductTitleText5JSON",
		"question": "FAQCNTTproductQuestionText5JSON",
		"answer": "FAQCNTTproductAnswerText5JSON"
	}, {
		"title": "FAQCNTTproductTitleText6JSON",
		"question": "FAQCNTTproductQuestionText6JSON",
		"answer": "FAQCNTTproductAnswerText6JSON"
	}, {
		"title": "FAQCNTTproductTitleText7JSON",
		"question": "FAQCNTTproductQuestionText7JSON",
		"answer": "FAQCNTTproductAnswerText7JSON"
	}, {
		"title": "FAQCNTTproductTitleText8JSON",
		"question": "FAQCNTTproductQuestionText8JSON",
		"answer": "FAQCNTTproductAnswerText8JSON"
	}, {
		"title": "FAQCNTTproductTitleText9JSON",
		"question": "FAQCNTTproductQuestionText9JSON",
		"answer": "FAQCNTTproductAnswerText9JSON"
	}, {
		"title": "FAQCNTTproductTitleText10JSON",
		"question": "FAQCNTTproductQuestionText10JSON",
		"answer": "FAQCNTTproductAnswerText10JSON"
	}, {
		"title": "FAQCNTTproductTitleText11JSON",
		"question": "FAQCNTTproductQuestionText11JSON",
		"answer": "FAQCNTTproductAnswerText11JSON"
	}, {
		"title": "FAQCNTTproductTitleText12JSON",
		"question": "FAQCNTTproductQuestionText12JSON",
		"answer": "FAQCNTTproductAnswerText12JSON"
	}, {
		"title": "FAQCNTTproductTitleText13JSON",
		"question": "FAQCNTTproductQuestionText13JSON",
		"answer": "FAQCNTTproductAnswerText13JSON"
	}, {
		"title": "FAQCNTTproductTitleText14JSON",
		"question": "FAQCNTTproductQuestionText14JSON",
		"answer": "FAQCNTTproductAnswerText14JSON"
	}, {
		"title": "FAQCNTTproductTitleText15JSON",
		"question": "FAQCNTTproductQuestionText15JSON",
		"answer": "FAQCNTTproductAnswerText15JSON"
	}, {
		"title": "FAQCNTTproductTitleText16JSON",
		"question": "FAQCNTTproductQuestionText16JSON",
		"answer": "FAQCNTTproductAnswerText16JSON"
	}, {
		"title": "FAQCNTTproductTitleText17JSON",
		"question": "FAQCNTTproductQuestionText17JSON",
		"answer": "FAQCNTTproductAnswerText17JSON"
	}, {
		"title": "FAQCNTTproductTitleText18JSON",
		"question": "FAQCNTTproductQuestionText18JSON",
		"answer": "FAQCNTTproductAnswerText18JSON"
	}, {
		"title": "FAQCNTTproductTitleText19JSON",
		"question": "FAQCNTTproductQuestionText19JSON",
		"answer": "FAQCNTTproductAnswerText19JSON"
	}, {
		"title": "FAQCNTTproductTitleText20JSON",
		"question": "FAQCNTTproductQuestionText20JSON",
		"answer": "FAQCNTTproductAnswerText20JSON"
	}, {
		"title": "FAQCNTTproductTitleText21JSON",
		"question": "FAQCNTTproductQuestionText21JSON",
		"answer": "FAQCNTTproductAnswerText21JSON"
	}, {
		"title": "FAQCNTTproductTitleText22JSON",
		"question": "FAQCNTTproductQuestionText22JSON",
		"answer": "FAQCNTTproductAnswerText22JSON"
	}, {
		"title": "FAQCNTTproductTitleText23JSON",
		"question": "FAQCNTTproductQuestionText23JSON",
		"answer": "FAQCNTTproductAnswerText23JSON"
	}, {
		"title": "FAQCNTTproductTitleText24JSON",
		"question": "FAQCNTTproductQuestionText24JSON",
		"answer": "FAQCNTTproductAnswerText24JSON"
	}, {
		"title": "FAQCNTTproductTitleText25JSON",
		"question": "FAQCNTTproductQuestionText25JSON",
		"answer": "FAQCNTTproductAnswerText25JSON"
	}, {
		"title": "FAQCNTTproductTitleText26JSON",
		"question": "FAQCNTTproductQuestionText26JSON",
		"answer": "FAQCNTTproductAnswerText26JSON"
	}, {
		"title": "FAQCNTTproductTitleText27JSON",
		"question": "FAQCNTTproductQuestionText27JSON",
		"answer": "FAQCNTTproductAnswerText27JSON"
	}, {
		"title": "FAQCNTTproductTitleText28JSON",
		"question": "FAQCNTTproductQuestionText28JSON",
		"answer": "FAQCNTTproductAnswerText28JSON"
	}, {
		"title": "FAQCNTTproductTitleText29JSON",
		"question": "FAQCNTTproductQuestionText29JSON",
		"answer": "FAQCNTTproductAnswerText29JSON"
	}, {
		"title": "FAQCNTTproductTitleText30JSON",
		"question": "FAQCNTTproductQuestionText30JSON",
		"answer": "FAQCNTTproductAnswerText30JSON"
	}, {
		"title": "FAQCNTTproductTitleText31JSON",
		"question": "FAQCNTTproductQuestionText31JSON",
		"answer": "FAQCNTTproductAnswerText31JSON"
	}, {
		"title": "FAQCNTTproductTitleText32JSON",
		"question": "FAQCNTTproductQuestionText32JSON",
		"answer": "FAQCNTTproductAnswerText32JSON"
	}, {
		"title": "FAQCNTTproductTitleText33JSON",
		"question": "FAQCNTTproductQuestionText33JSON",
		"answer": "FAQCNTTproductAnswerText33JSON"
	}, {
		"title": "FAQCNTTproductTitleText34JSON",
		"question": "FAQCNTTproductQuestionText34JSON",
		"answer": "FAQCNTTproductAnswerText34JSON"
	}, {
		"title": "FAQCNTTproductTitleText35JSON",
		"question": "FAQCNTTproductQuestionText35JSON",
		"answer": "FAQCNTTproductAnswerText35JSON"

	}, {
		"title": "FAQCNTTproductTitleText36JSON",
		"question": "FAQCNTTproductQuestionText36JSON",
		"answer": "FAQCNTTproductAnswerText36JSON"
	}, {
		"title": "FAQCNTTproductTitleText37JSON",
		"question": "FAQCNTTproductQuestionText37JSON",
		"answer": "FAQCNTTproductAnswerText37JSON"
	}]
}]